<svg width="24" height="25" viewBox="0 0 24 25" fill="none" xmlns="http://www.w3.org/2000/svg">
<path d="M23 10.0196C23.0495 8.58821 22.7365 7.16757 22.09 5.88955C21.6514 5.36515 21.0427 5.01126 20.37 4.88955C17.5875 4.63708 14.7936 4.5336 12 4.57955C9.21667 4.53151 6.43274 4.63165 3.66003 4.87955C3.11185 4.97927 2.60454 5.2364 2.20003 5.61955C1.30003 6.44955 1.20003 7.86955 1.10003 9.06955C0.954939 11.2271 0.954939 13.392 1.10003 15.5496C1.12896 16.225 1.22952 16.8954 1.40003 17.5496C1.5206 18.0546 1.76455 18.5219 2.11003 18.9096C2.51729 19.313 3.03641 19.5848 3.60003 19.6896C5.75594 19.9557 7.92824 20.066 10.1 20.0196C13.6 20.0696 16.67 20.0196 20.3 19.7396C20.8775 19.6412 21.4112 19.3691 21.83 18.9596C22.11 18.6795 22.3191 18.3367 22.44 17.9596C22.7977 16.8622 22.9733 15.7137 22.96 14.5596C23 13.9996 23 10.6196 23 10.0196ZM9.74003 15.1596V8.96955L15.66 12.0796C14 12.9996 11.81 14.0396 9.74003 15.1596Z" fill="white"/>
</svg>
